…
``` r
datasaurus %>%
        nest(data = -dataset) %>% 
        mutate(model = map(data, ~ lm(y ~ x, data = .)),
               tidied = map(model, tidy)
        ) %>% 
        unnest(tidied) %>% 
        select(-data, -model)
```

    ## # A tibble: 26 x 6
    ##    dataset term        estimate std.error statistic  p.value
    ##    <chr>   <chr>          <dbl>     <dbl>     <dbl>    <dbl>
    ##  1 dino    (Intercept)  53.5        7.69      6.95  1.29e-10
    ##  2 dino    x            -0.104      0.136    -0.764 4.46e- 1
    ##  3 away    (Intercept)  53.4        7.69      6.94  1.31e-10
    ##  4 away    x            -0.103      0.135    -0.760 4.48e- 1
    ##  5 h_lines (Intercept)  53.2        7.70      6.91  1.53e-10
    ##  6 h_lines x            -0.0992     0.136    -0.732 4.66e- 1
    ##  7 v_lines (Intercept)  53.9        7.69      7.01  9.38e-11
    ##  8 v_lines x            -0.112      0.135    -0.824 4.12e- 1
    ##  9 x_shape (Intercept)  53.6        7.69      6.97  1.17e-10
    ## 10 x_shape x            -0.105      0.135    -0.778 4.38e- 1
    ## # … with 16 more rows
…
